\relax 
\citation{uno}
\citation{dos}
\citation{tres}
\citation{cuatro}
\@writefile{toc}{\contentsline {title}{Tarea 01 - Procesamiento de Im\'agenes}{1}}
\@writefile{toc}{\authcount {1}}
\@writefile{toc}{\contentsline {author}{Antonio Leyva}{1}}
\@writefile{toc}{\contentsline {section}{\numberline {1}Introducci\'on}{1}}
\@writefile{toc}{\contentsline {section}{\numberline {2}M\'etodos}{1}}
\@writefile{toc}{\contentsline {subsection}{\numberline {2.1}El algoritmo de Rosenfeld y Pfaltz}{1}}
\@writefile{toc}{\contentsline {subsubsection}{Propagaci\'on de etiquetas}{2}}
\@writefile{toc}{\contentsline {subsubsection}{Encontrar clases de equivalencias}{2}}
\@writefile{toc}{\contentsline {subsubsection}{Asignar etiquetas usando clases de equivalencias}{3}}
\@writefile{toc}{\contentsline {subsection}{\numberline {2.2}Contorno de una regi\'on conexa}{3}}
\@writefile{toc}{\contentsline {section}{\numberline {3}Resultados}{3}}
\@writefile{toc}{\contentsline {section}{\numberline {4}Conclusiones}{3}}
\@writefile{lof}{\contentsline {figure}{\numberline {1}{\ignorespaces Imagen binaria 'fruit.png'}}{4}}
\newlabel{fig1:1}{{1}{4}}
\@writefile{lof}{\contentsline {figure}{\numberline {2}{\ignorespaces Imagen binaria 'planes.png'}}{5}}
\newlabel{fig2:2}{{2}{5}}
\@writefile{lof}{\contentsline {figure}{\numberline {3}{\ignorespaces Imagen binaria 'zoo.png'}}{6}}
\newlabel{fig3:3}{{3}{6}}
\@writefile{lof}{\contentsline {figure}{\numberline {4}{\ignorespaces Imagen binaria 'label-fruit.jpg'}}{7}}
\newlabel{fig4:4}{{4}{7}}
\@writefile{lof}{\contentsline {figure}{\numberline {5}{\ignorespaces Imagen binaria 'label-planes.jpg'}}{8}}
\newlabel{fig5:5}{{5}{8}}
\@writefile{lof}{\contentsline {figure}{\numberline {6}{\ignorespaces Imagen binaria 'label-zoo.jpg'}}{9}}
\newlabel{fig6:6}{{6}{9}}
\@writefile{lof}{\contentsline {figure}{\numberline {7}{\ignorespaces Contorno de una secci\'on conexa de la figura 'label-fruit.jpg'}}{9}}
\newlabel{fig7:7}{{7}{9}}
\bibcite{uno}{1}
\bibcite{dos}{2}
\bibcite{tres}{3}
\bibcite{cuatro}{4}
\@writefile{lof}{\contentsline {figure}{\numberline {8}{\ignorespaces Contorno de una secci\'on conexa de la figura 'label-planes-01.jpg'}}{10}}
\newlabel{fig8:8}{{8}{10}}
\@writefile{lof}{\contentsline {figure}{\numberline {9}{\ignorespaces Contorno de una secci\'on conexa de la figura 'label-zoo-01.jpg'}}{10}}
\newlabel{fig9:9}{{9}{10}}
